{
  "changes": [
    {
      "description": "Update alpine docker image and packages in Dockerfile.",
      "type": "minor"
    },
    {
      "description": "Internal maintenance: update pipes versions in pipelines config file.",
      "type": "patch"
    },
    {
      "description": "Update array example in readme.",
      "type": "patch"
    },
    {
      "description": "Update validation messages.",
      "type": "patch"
    }
  ],
  "created_at": "2023-10-25T09:11:10.124875+00:00",
  "version": "0.11.0"
}