[
  {
    "description": "Update bitbucket-pipes-toolkit to fix vulnerability with certify.",
    "type": "minor"
  },
  {
    "description": "Internal maintenance: update pipes versions in pipelines config file.",
    "type": "patch"
  }
]